3 Simulation-Based Inference – STAT 255 Notes
…
Look at the distribution of the statistic across bootstrap samples. The variability in this bootstrap distribution can be used to approximate the variability in the sampling distribution for the statistic of interest.

Bootstrap Samples of Lakes

Bootstrap Sample 1

The resample() function samples the specified number rows from a data frame, with replacement.

The lakes in the first sample are shown below. Notice that some lakes occur multiple times, and others not at all.

Bootstrap1 <- resample(FloridaLakes, replace = TRUE) |> arrange(ID)
Bootstrap1

# A tibble: 53 × 8
      ID Lake            pH Mercury Chlorophyll Location Depth   orig.id
   <dbl> <chr>        <dbl>   <dbl>       <dbl> <chr>    <chr>   <chr>  
 1     2 Annie          5.1    1.33         3.2 S        Deep    2      
 2     2 Annie          5.1    1.33         3.2 S        Deep    2      
 3     3 Apopka         9.1    0.04       128.  N        Medium  3      
 4     4 Blue Cypress   6.9    0.44         3.5 S        Shallow 4      
 5     5 Brick          4.6    1.2          1.8 S        Medium  5      
 6     6 Bryant         7.3    0.27        44.1 N        Shallow 6      
 7     8 Crescent       8.1    0.19        33.7 N        Shallow 8      
 8     8 Crescent       8.1    0.19        33.7 N        Shallow 8      
 9     8 Crescent       8.1    0.19        33.7 N        Shallow 8      
10     9 Deer Point     5.8    0.83         1.6 N        Medium  9      
# ℹ 43 more rows
…
Notice that the sample mean of the bootstrap sample differs from that of the original sample. This happens because some lakes in the original sample show up multiple times and others not at all. By taking many bootstrap samples and estimating the variability in \(b_0\), we can estimate the standard error needed to calculate a confidence interval for the mean mercury level among all Florida Lakes.

Bootstrap Sample #2

Since bootstrap samples are taken with replacement, every sample will be different, allowing us to measure the amount of variability in our statistics between samples.

We take a second bootstrap sample and display the statistics below. Notice that the lakes chosen and omitted differ from the first sample.

Bootstrap2 <- resample(FloridaLakes, replace = TRUE) |> arrange(ID)
Bootstrap2

# A tibble: 53 × 8
      ID Lake          pH Mercury Chlorophyll Location Depth   orig.id
   <dbl> <chr>      <dbl>   <dbl>       <dbl> <chr>    <chr>   <chr>  
 1     1 Alligator    6.1    1.23         0.7 S        Medium  1      
 2     2 Annie        5.1    1.33         3.2 S        Deep    2      
 3     6 Bryant       7.3    0.27        44.1 N        Shallow 6      
 4     6 Bryant       7.3    0.27        44.1 N        Shallow 6      
 5     7 Cherry       5.4    0.48         3.4 N        Shallow 7      
 6     8 Crescent     8.1    0.19        33.7 N        Shallow 8      
 7     9 Deer Point   5.8    0.83         1.6 N        Medium  9      
 8     9 Deer Point   5.8    0.83         1.6 N        Medium  9      
 9    11 Dorr         5.4    0.71        14.9 N        Medium  11     
10    12 Down         7.2    0.5          4   S        Deep    12     
# ℹ 43 more rows
…
Call:
lm(formula = Mercury ~ 1, data = Bootstrap2)

Coefficients:
(Intercept)  
     0.5392  

Bootstrap Sample #3

We’ll take another bootstrap sample. Notice how the lakes selected differ between bootstrap samples, ensuring our estimates of \(b_0\) will differ and we’ll be able to estimate variability.

Bootstrap3 <- resample(FloridaLakes, replace = TRUE) |> arrange(ID)
Bootstrap3

# A tibble: 53 × 8
      ID Lake            pH Mercury Chlorophyll Location Depth   orig.id
   <dbl> <chr>        <dbl>   <dbl>       <dbl> <chr>    <chr>   <chr>  
 1     2 Annie          5.1    1.33         3.2 S        Deep    2      
 2     3 Apopka         9.1    0.04       128.  N        Medium  3      
 3     3 Apopka         9.1    0.04       128.  N        Medium  3      
 4     3 Apopka         9.1    0.04       128.  N        Medium  3      
 5     4 Blue Cypress   6.9    0.44         3.5 S        Shallow 4      
 6     4 Blue Cypress   6.9    0.44         3.5 S        Shallow 4      
 7     5 Brick          4.6    1.2          1.8 S        Medium  5      
 8     5 Brick          4.6    1.2          1.8 S        Medium  5      
 9     6 Bryant         7.3    0.27        44.1 N        Shallow 6      
10     8 Crescent       8.1    0.19        33.7 N        Shallow 8      
# ℹ 43 more rows
…
Coefficients:
(Intercept)    LocationS  
     0.4245       0.2720  

A confidence interval for \(b_0\) will tell us a range of plausible values for the mean mercury level among all lakes in Northern Florida.

A confidence interval for \(b_1\) will tell us a range of plausible values for the mean mercury level among all lakes in Southern Florida.

We can obtain these confidence intervals by fitting a regression model to each of our bootstrap samples and recording the values of the statistics \(b_0\) and \(b_1\) in the bootstrap samples.

#First Bootstrap Sample 
Bootstrap1 <- resample(FloridaLakes, replace = TRUE)
Bootstrap1 |> arrange(ID)

# A tibble: 53 × 8
      ID Lake            pH Mercury Chlorophyll Location Depth   orig.id
   <dbl> <chr>        <dbl>   <dbl>       <dbl> <chr>    <chr>   <chr>  
 1     1 Alligator      6.1    1.23         0.7 S        Medium  1      
 2     1 Alligator      6.1    1.23         0.7 S        Medium  1      
 3     4 Blue Cypress   6.9    0.44         3.5 S        Shallow 4      
 4     4 Blue Cypress   6.9    0.44         3.5 S        Shallow 4      
 5     5 Brick          4.6    1.2          1.8 S        Medium  5      
 6     6 Bryant         7.3    0.27        44.1 N        Shallow 6      
 7     6 Bryant         7.3    0.27        44.1 N        Shallow 6      
 8     7 Cherry         5.4    0.48         3.4 N        Shallow 7      
 9    11 Dorr           5.4    0.71        14.9 N        Medium  11     
10    11 Dorr           5.4    0.71        14.9 N        Medium  11     
# ℹ 43 more rows
…
Coefficients:
(Intercept)    LocationS  
     0.4878       0.2122  

The bootstrap estimates are \(b_0\) = 0.4878125 and \(b_1\) = 0.2121875.

Bootstrap Sample 2

# Second Bootstrap Sample

Bootstrap2 <- resample(FloridaLakes, replace = TRUE)
Bootstrap2 |> arrange(ID)

# A tibble: 53 × 8
      ID Lake        pH Mercury Chlorophyll Location Depth   orig.id
   <dbl> <chr>    <dbl>   <dbl>       <dbl> <chr>    <chr>   <chr>  
 1     2 Annie      5.1    1.33         3.2 S        Deep    2      
 2     5 Brick      4.6    1.2          1.8 S        Medium  5      
 3     6 Bryant     7.3    0.27        44.1 N        Shallow 6      
 4     6 Bryant     7.3    0.27        44.1 N        Shallow 6      
 5     7 Cherry     5.4    0.48         3.4 N        Shallow 7      
 6     7 Cherry     5.4    0.48         3.4 N        Shallow 7      
 7     8 Crescent   8.1    0.19        33.7 N        Shallow 8      
 8    10 Dias       6.4    0.81        22.5 N        Deep    10     
 9    10 Dias       6.4    0.81        22.5 N        Deep    10     
10    11 Dorr       5.4    0.71        14.9 N        Medium  11     
# ℹ 43 more rows
…
